{
  "devToolsPort": 19002,
  "expoServerPort": null,
  "packagerPort": null,
  "packagerPid": null,
  "expoServerNgrokUrl": "https://y8-pka.soncray.calculator.exp.direct",
  "packagerNgrokUrl": "https://packager.y8-pka.soncray.calculator.exp.direct",
  "ngrokPid": 8224,
  "webpackServerPort": null
}